282625 469079 449
72013 664655 509
65375 75626 325
528260 400994 470
114524 621861 470
481458 603179 470
569025 38902 470
151525 390743 443
976046 44511 525
126535 584711 470
228943 599772 470
11388 987393 525
180814 299391 443
624724 460019 470
912431 751122 525
475191 364727 449
955175 755541 525
975341 770473 525
17635 269198 443
728396 42971 509
418567 658857 509
18538 395123 443
138484 208262 383
29020 562392 470
506920 886383 525
704183 561303 509
256388 219311 443
497248 216125 449
26178 161856 383
69919 242767 443
49047 913343 525
232171 283919 407
779013 341104 509
441962 438364 400
891661 227815 525
710689 297646 509
599475 317548 470
228275 644288 509
48590 69264 340
978700 595839 525
395408 313122 441
810864 304634 509
987861 736545 525
724922 779889 468
184324 957052 525
160810 839443 525
186043 328208 443
26296 774131 509
815610 498464 509
413354 357570 449
569912 946016 525
131360 614124 470
149860 25950 375
442018 790819 509
985778 925298 507
412361 123171 449
706488 262158 509
163298 62649 383
405218 702903 509
809434 461768 509
465969 253763 449
677850 17153 509
825430 312195 509
788426 837374 468
302592 803087 509
459174 491655 444
294924 966713 525
652979 574584 509
905595 542229 525
673817 468508 509
730782 201314 509
860608 870352 388
824379 739045 468
379257 597904 470
853207 568041 525
252527 60283 443
957493 354934 525
659433 372825 509
729023 130313 509
714039 419758 509
280940 536363 470
603812 193180 470
313821 798419 509
622934 697654 509
612094 752814 509
53789 810787 509
2425 708084 509
200333 741374 509
650585 919243 525
608348 655840 509
182995 844347 525
481630 282951 449
616417 397752 470
693802 902200 525
440648 515176 470
697104 796467 504
152548 114049 375
563319 336487 470
957591 955589 352
953392 164752 525
483034 876934 525
332967 644719 509
138296 491363 449
822122 924972 525
80299 173298 383
147656 611467 470
365085 710352 509
72679 197311 383
63394 478540 449
28950 375981 443
190350 911728 525
218786 933608 525
718434 517768 509
73738 831007 509
955666 801263 525
173959 295409 443
776632 846971 525
378990 717426 509
48949 642077 509
640909 549810 509
942144 909441 507
666421 358552 509
264920 441457 449
484708 383717 449
627243 852918 525
64961 704225 509
860171 982381 507
850675 853040 357
673536 853929 525
840772 673882 525
94153 781596 509
768477 576252 509
317505 791602 509
839771 506512 525
926295 137435 525
6097 588572 470
972268 369180 525
152128 92820 375
486846 488468 382
560556 791000 509
903340 447971 525
158909 200041 370
232033 593235 470
250763 659788 509
986088 141841 525
888687 431984 525
943738 707460 525
366754 130112 443
915855 324082 525
328014 842952 525
882687 467531 525
852622 180642 525
236550 291325 407
875217 932847 476
368993 90636 443
268419 771247 509
846417 274302 525
641310 705653 504
475376 248654 449
335408 104297 443
727537 403904 509
605000 643701 509
961933 92969 525
993210 476543 525
381963 379639 379
322394 786166 509
424556 101022 449
379759 949725 525
531158 372660 470
375375 11294 443
438064 612429 470
43984 944314 525
71090 511827 449
750682 4424 509
234682 381334 441
45080 574040 470
981856 971443 427
786746 948330 525
482503 716489 509
550056 232463 470
219070 754128 509
719953 269980 509
371435 841721 525
413370 956905 525
13023 503330 449
850517 971524 507
933993 146452 525
509180 516222 470
477510 874447 525
711655 236827 509
557133 575099 421
628899 468832 509
250383 614248 470
594592 548866 434
615660 267812 470
387386 433049 449
750106 835450 468
413995 922789 525
46108 863194 525
265172 534004 470
920980 541516 525
568211 690248 509
658331 4436 509
84035 915731 525
192300 699646 509
356827 190374 443
987395 72693 525
385483 504466 449
759590 157627 509
966200 121791 525
826777 770696 468
878591 223163 525
569389 280662 470
372576 42318 443
883130 584124 525
156892 742157 509
497325 755348 509
60495 908968 525
463399 826339 509
668992 870157 525
919696 168207 525
518023 774759 509
852051 880629 432
721685 423466 509
588822 70056 470
852633 966438 507
985588 807914 525
947580 12097 525
88110 932570 525
957257 240773 525
253371 748294 509
203765 534930 470
427600 65541 449
717983 963845 525
387387 9647 443
416909 216212 449
933899 460390 525
180464 564056 470
140163 70693 354
464610 743384 509
354303 398132 436
558764 139775 470
459908 991666 525
767703 383561 509
400878 866250 525
713611 764477 424
2976 329413 443
400726 893807 525
539110 618618 452
352215 320248 441
683518 894943 525
807004 48832 509
789161 381160 509
998906 381841 525
474290 670566 509
743162 793322 468
265410 288598 407
8652 691444 509
29817 480817 449
40497 636776 509
922267 650223 525
20307 373648 443
17826 562536 470
947323 102874 525
555723 915837 525
602525 372293 470
931116 779499 525
687523 688040 380
452788 570681 470
683270 384857 509
698090 134039 509
847711 369529 525
141620 359706 443
591443 456487 470
878469 633651 525
