234483 871679 525
713781 485404 509
310255 333814 384
513806 9138 470
768375 840527 525
274532 952740 525
635524 657660 429
301380 74150 443
884793 500854 525
700947 21451 509
680403 76549 509
723330 662259 504
387867 990699 525
517982 561478 452
927382 663863 525
799988 216693 509
563745 549631 421
862813 952242 507
917270 645056 525
786839 304634 509
631094 751752 504
339472 123678 443
871762 311149 525
795018 102966 509
851520 820397 525
949882 586993 525
51414 526194 470
551772 589473 434
733872 423406 509
194219 113608 383
902133 303022 525
869869 623870 525
652463 34880 509
368246 318301 441
593448 867617 525
564123 18285 470
948551 162284 525
744557 640365 504
210584 199361 373
72642 404249 443
564163 98984 470
499545 959432 525
504386 536987 470
907520 427518 525
102605 35693 351
890590 333660 525
578414 663962 509
21346 510616 449
909157 354070 525
610734 450969 470
84792 856612 525
603479 716847 509
729474 13771 509
800793 261904 509
491578 805269 509
895910 47282 525
533482 500678 470
817398 83554 509
818304 86003 509
780087 362183 509
958239 550136 525
988839 658696 525
597137 188978 470
354550 702952 509
89758 927170 525
41380 49880 314
216125 474537 449
906165 380446 525
253192 839389 525
710706 139448 509
984362 82628 525
951891 2683 525
489895 425405 444
303011 567423 470
235911 124483 443
117581 168783 383
352315 357807 379
326518 48933 443
803878 125591 509
610250 158444 470
66576 260920 443
391095 862342 525
981272 520548 525
731363 412892 509
456422 810222 509
284280 221471 443
833443 452204 509
376764 366111 423
238150 898996 525
55818 139697 354
924811 522901 525
669113 899441 525
131603 537580 470
136551 645552 509
168650 746916 509
543614 427961 470
47201 263651 443
47590 894554 525
583324 161732 470
430583 726802 509
480371 694005 509
733208 793276 468
601541 106817 470
603694 595150 403
86144 760086 509
636076 617617 509
930035 90272 525
402488 792996 509
434663 545251 470
894565 659726 525
216565 624332 470
29028 309470 443
860481 233190 525
887143 93754 525
32922 703023 509
80493 477103 449
358909 870491 525
115667 367957 443
836739 783932 468
381035 400807 436
245067 145227 443
85792 451325 449
73330 259646 443
112879 210352 383
207568 6271 383
481256 948899 525
34151 857224 525
161906 133342 383
681707 487466 509
251114 46112 443
371855 926294 525
149637 334184 443
527396 242124 470
335378 535240 470
67016 824119 509
296379 920142 525
789145 167306 509
589998 262809 470
85641 795772 509
365704 721893 509
199128 572645 470
744464 873403 525
143213 329161 443
856483 15051 525
84058 490354 449
247151 899506 525
903685 837575 525
305835 664872 509
916780 913991 370
285864 995412 525
568720 805841 509
30468 823863 509
908554 444266 525
482969 933794 525
897680 899435 370
506250 995765 525
169888 605142 470
500309 87177 449
612111 738939 509
825530 972114 525
891228 572470 525
714392 379936 509
943256 237631 525
943717 952030 414
434946 899023 525
882836 838050 432
657885 268028 509
88085 927387 525
133837 677257 509
311395 302288 371
797899 347902 509
515942 538003 439
609787 133347 470
824393 835972 419
750479 941554 525
313189 77774 443
79658 357206 443
296147 184911 443
432811 981984 525
720062 223592 509
978011 78713 525
415096 916478 525
906727 144821 525
804698 929815 525
336075 952225 525
874052 871728 432
629163 885797 525
179476 459803 449
804468 251980 509
159183 555895 470
528960 618468 452
95318 49650 351
218989 398012 443
401737 4817 443
396581 902301 525
90837 264925 443
444200 59719 449
351256 800594 509
840921 882793 432
47244 213456 383
185535 497467 449
628760 585486 509
215025 476401 449
739417 263524 509
431038 138030 449
736665 707878 424
762202 726370 424
308133 778753 509
